{
  "accounts": [
    {
      "href": "string",
      "primary": true,
      "id": "1",
      "name": "alice"
    },
    {
      "href": "string",
      "primary": false,
      "id": "2",
      "name": "alice-drift"
    }
  ]
}